{
	"_id": "012013",
	"firstName": "Yuna",
	"lastName": "Rodelas",
	"email": "yunarodelas@mail.com",
	"password": "Yuna1011",
	"isAdmin": false,
	"mobileNumber": "09151518924"
}

{
	"_id": "011197",
	"firstName": "Marjorie",
	"lastName": "Nava",
	"email": "marjorienava@mail.com",
	"password": "marjrie111",
	"isAdmin": false,
	"mobileNumber": "09951518924"
}